…
isequal(size(cropfield.dayout), (ndays, 89))

# output
true
```

we can see the daily output DataFrame in the field
```jldoctest intermediate_run_example
cropfield.dayout

# output
30×89 DataFrame
 Row │ RunNr  Date        DAP    Stage  WC()        Rain       Irri       Surf ⋯
     │ Int64  Date        Int64  Int64  Quantity…   Quantity…  Quantity…  Quan ⋯
─────┼──────────────────────────────────────────────────────────────────────────
   1 │     1  2014-05-21      1      1  866.491 mm     0.1 mm     0.0 mm     0 ⋯
   2 │     1  2014-05-22      2      2  864.965 mm     1.9 mm     0.0 mm     0
   3 │     1  2014-05-23      3      2   864.28 mm     2.4 mm     0.0 mm     0
   4 │     1  2014-05-24      4      2  862.077 mm     1.2 mm     0.0 mm     0
   5 │     1  2014-05-25      5      2  859.819 mm     1.3 mm     0.0 mm     0 ⋯
   6 │     1  2014-05-26      6      2  858.465 mm     1.2 mm     0.0 mm     0
   7 │     1  2014-05-27      7      2  857.867 mm     2.4 mm     0.0 mm     0
   8 │     1  2014-05-28      8      2  856.889 mm     0.4 mm     0.0 mm     0
  ⋮  │   ⋮        ⋮         ⋮      ⋮        ⋮           ⋮          ⋮           ⋱
  24 │     1  2014-06-13     24      2  884.881 mm    17.4 mm     0.0 mm     0 ⋯
  25 │     1  2014-06-14     25      2  874.395 mm     3.8 mm     0.0 mm     0
  26 │     1  2014-06-15     26      2  866.108 mm     0.1 mm     0.0 mm     0
  27 │     1  2014-06-16     27      2  862.106 mm     0.2 mm     0.0 mm     0
  28 │     1  2014-06-17     28      2  868.995 mm    11.0 mm     0.0 mm     0 ⋯
  29 │     1  2014-06-18     29      2  868.812 mm     4.1 mm     0.0 mm     0
  30 │     1  2014-06-19     30      2  863.843 mm     0.2 mm     0.0 mm     0
                                                  82 columns and 15 rows omitted
```
…
    return df
end

df = create_mock_climate_dataframe(start_date, end_date, tmin, delta_t, eto, rain)

# output
152×5 DataFrame
 Row │ Date        Tmin     Tmax     ETo        Rain
     │ Date        Float64  Float64  Float64    Float64
─────┼────────────────────────────────────────────────────
   1 │ 2023-01-01  15.5805  25.7028  0.651892   2.91776
   2 │ 2023-01-02  15.1912  25.8489  1.27642    0.633148
   3 │ 2023-01-03  15.9711  26.3123  0.815404   1.05268
   4 │ 2023-01-04  15.7434  26.2699  1.28974    0.205817
   5 │ 2023-01-05  15.171   25.5827  0.21546    0.0733287
   6 │ 2023-01-06  15.7048  26.1394  0.0967601  1.52228
   7 │ 2023-01-07  15.441   26.284   0.238206   0.446309
   8 │ 2023-01-08  15.804   26.2381  0.43073    0.539408
  ⋮  │     ⋮          ⋮        ⋮         ⋮          ⋮
 146 │ 2023-05-26  15.3848  26.1798  0.857995   0.433004
 147 │ 2023-05-27  15.6592  26.1444  1.41443    2.38353
 148 │ 2023-05-28  15.5007  26.292   0.226759   0.429369
 149 │ 2023-05-29  15.6813  26.624   0.220586   0.88746
 150 │ 2023-05-30  15.8692  26.2971  0.142944   0.235242
 151 │ 2023-05-31  15.6776  26.629   0.331443   0.851964
 152 │ 2023-06-01  15.9877  26.9083  0.160163   1.67827
                                          137 rows omitted
```
…
We can also change the climate data in the middle of the run, first we create 
a new mockup climate with the current simulation date of the `cropfield`

```jldoctest advanced_run_example
# change climate data
daynri_now = cropfield.gvars[:integer_parameters][:daynri]
day_now, month_now, year_now = AquaCrop.determine_date(daynri_now)
date_now = Date(year_now, month_now, day_now)
df_new = create_mock_climate_dataframe(date_now, end_date, tmin, delta_t, eto, rain)

# output
121×5 DataFrame
 Row │ Date        Tmin     Tmax     ETo        Rain
     │ Date        Float64  Float64  Float64    Float64
─────┼────────────────────────────────────────────────────
   1 │ 2023-02-01  15.6869  26.5836  1.71291    1.8238
   2 │ 2023-02-02  15.9483  26.2946  0.100485   0.979034
   3 │ 2023-02-03  15.2689  26.0057  0.482743   0.704698
   4 │ 2023-02-04  15.7582  26.7011  0.503668   1.39689
   5 │ 2023-02-05  15.4462  25.5794  1.34735    1.70537
   6 │ 2023-02-06  15.1402  25.4986  0.49967    0.403604
   7 │ 2023-02-07  15.0549  25.8906  0.225304   1.40783
   8 │ 2023-02-08  15.715   26.1469  0.0636065  0.909276
  ⋮  │     ⋮          ⋮        ⋮         ⋮          ⋮
 115 │ 2023-05-26  15.5075  25.8814  1.00945    0.741913
 116 │ 2023-05-27  15.6137  26.5237  0.9474     0.0554669
 117 │ 2023-05-28  15.7396  25.877   0.684951   0.179529
 118 │ 2023-05-29  15.8959  26.1849  1.82466    1.01259
 119 │ 2023-05-30  15.1694  26.0627  1.5105     0.31451
 120 │ 2023-05-31  15.2946  25.4924  2.04355    1.40788
 121 │ 2023-06-01  15.9661  26.0386  0.835019   0.0228998
                                          106 rows omitted
```
…
